<svg width="8" height="13" viewBox="0 0 8 13" fill="none" xmlns="http://www.w3.org/2000/svg">
<path id="submit-arrow" fill-rule="evenodd" clip-rule="evenodd" d="M1.1875 12.7383C1.13281 12.7383 1.08008 12.7285 1.0293 12.709C0.978515 12.6895 0.933594 12.6602 0.894531 12.6211C0.816406 12.543 0.777344 12.4492 0.777344 12.3398C0.777344 12.2305 0.816406 12.1367 0.894531 12.0586L6.25 6.70312L0.976562 1.44141C0.898437 1.36328 0.859375 1.26758 0.859375 1.1543C0.859375 1.04102 0.898437 0.945313 0.976562 0.867188C1.05469 0.789062 1.15039 0.75 1.26367 0.75C1.37695 0.75 1.47266 0.789062 1.55078 0.867188L7.09375 6.42188C7.17188 6.5 7.21094 6.59375 7.21094 6.70312C7.21094 6.8125 7.17188 6.90625 7.09375 6.98438L1.46875 12.6211C1.42969 12.6602 1.38477 12.6895 1.33398 12.709C1.2832 12.7285 1.23438 12.7383 1.1875 12.7383Z" fill="white"/>
</svg>
